<svg width="244" height="244" xmlns="http://www.w3.org/2000/svg" xmlns:xlink="http://www.w3.org/1999/xlink">
    <title>VIGOR Decentralized Protocol Badge</title>
    <defs>
        <path id="a" d="M0 .19266859h243.104161V243.29676H0z"/>
    </defs>
    <g fill="none" fill-rule="evenodd">
        <g transform="translate(0 .510501)">
            <mask id="b" fill="#fff">
                <use xlink:href="#a"/>
            </mask>
            <path d="M243.104372 121.744679c0 67.131643-54.421141 121.552081-121.55208 121.552081-67.131643 0-121.55278422-54.420438-121.55278422-121.552081C-.00049222 54.6130363 54.420649.19259827 121.552292.19259827c67.130939 0 121.55208 54.42043803 121.55208 121.55208073" fill="#1E212E" mask="url(#b)"/>
        </g>
        <path d="M120.283843 63.2528161L97.1818951 98.7952484c-.8648991 1.3704786-1.0744438 3.0545706-.5695677 4.5945126l24.5476656 72.939124c.161729.491516.857164.492922 1.0203.00211l24.203815-72.914513c.516127-1.554709.303067-3.259896-.580115-4.639516l-22.740519-35.5318847c-.650432-1.0160807-2.135527-1.0118617-2.779631.0077348" fill="#FFF"/>
        <path d="M148.633127 107.181676l-25.051135 74.843308 37.239885-58.384207c.255954-.402213.253844-.916934-.005626-1.317741l-10.007516-15.417706c-.554801-.855054-1.852149-.690513-2.175608.276346M94.4711746 106.862718l25.0511354 74.842605-37.2398846-58.383504c-.2559539-.402916-.2538444-.917637.0056253-1.317741l10.008219-15.417706c.5548012-.855054 1.8514467-.690513 2.1749049.276346" fill="#4468CC"/>
        <path d="M213.190816 164.784662l-7.027481-3.230363c5.197833-11.307678 8.029498-23.405718 8.415539-35.9566.243297-7.927539-.513314-15.830467-2.250144-23.490801l7.544311-1.71011c1.88098 8.298813 2.700173 16.856392 2.436484 25.437879-.417683 13.591574-3.485614 26.696554-9.118709 38.949995M23.0561718 100.250951l7.5569683 1.65034c-2.6558732 12.159216-2.8295562 24.582824-.5182364 36.924865 1.459781 7.795343 3.8920462 15.353014 7.2285879 22.464173l-7.0021671 3.285913c-3.6149971-7.703931-6.2490721-15.887424-7.8290951-24.325464-2.5032853-13.366559-2.3134294-26.823827.5639424-39.999827" fill="#FFF"/>
        <path fill="#4468CC" d="M22.5768207 92.1092265l1.3332104-3.457487 11.4623747.1476657-8.5892219-7.5900173 1.3022709-3.3752161 12.1156196 11.2872853-1.066709 2.7662709zM30.1908161 74.2037752l1.604634-2.9490951 13.4059366 7.2939827-1.6053371 2.948392zM40.2364438 71.5377061l-.0351585-.0260173c-3.5017867-2.5574294-4.3772334-7.3811758-1.6517464-11.1128992 1.6201038-2.2170951 3.1959078-3.1178559 5.2252565-3.6044495l.8121614 3.2113775c-1.4865015.3705706-2.5616484.8817752-3.6030433 2.3071008-1.439389 1.9716888-.8423976 4.8103862 1.2523459 6.3404842l.0358616.0253141c2.2522536 1.6454179 5.0382133 1.3064899 6.6322997-.8761498.7207493-.9851413 1.1166341-2.0455217 1.1257753-3.0918387l-1.7600346-1.2868011-1.9927839 2.7282997-2.340853-1.7094063 3.908219-5.351124 5.3511239 3.9096254c.1476657 2.051147-.2454063 4.4362997-1.8922305 6.6899597-2.8028357 3.8357925-7.4240692 4.5073198-11.0671931 1.8465245M60.2087931 48.6562017l-.02883-.0316426c-1.7818328-1.9154352-4.6711585-2.2044381-6.6491758-.3635389-1.9801268 1.8408991-1.8964495 4.681706-.1153199 6.5957348l.0302363.0323459c1.7804266 1.914732 4.669049 2.204438 6.6477695.3635389 1.9794236-1.8408992 1.8964496-4.6817061.1153199-6.5964381m-9.3029395 8.6546167l-.02883-.0316426c-2.9554236-3.1755159-2.8696369-8.1075504.5773026-11.3147089 3.4469395-3.2064554 8.3100634-2.9385476 11.2640807.2369683l.0295332.0323458c2.9547204 3.1755158 2.8689337 8.1082536-.5773026 11.3147089-3.4476427 3.2057522-8.3100634 2.9385476-11.2647839-.2376715M71.3688749 40.3184334c1.3796196-.8761498 1.703781-2.1144322 1.0139712-3.2001268l-.0232046-.0365648c-.7713775-1.2143747-2.0145821-1.3022709-3.3942017-.4261211L66.149947 38.443079l2.3485879 3.6979711 2.87034-1.8226167zm-9.6763227-2.6326686l5.8869394-3.7394582c1.637683-1.0399884 3.2001268-1.3859481 4.5839655-1.0779596 1.1728876.2622824 2.2016253 1.0294409 2.9730028 2.2431124l.0232047.0365648c1.3205533 2.0792738 1.0280345 4.0987781-.2243113 5.7456023l6.0676542 2.6017291-3.3119308 2.1031816-5.3771413-2.3689799-2.2255331 1.4133718 2.6164957 4.1219827-2.8330721 1.7994121-8.1792737-12.8785591zM93.5564911 35.7982455l1.3212565-2.800023c1.6151815.7516887 3.188876 1.0856945 4.8764841.6462132 1.3296943-.3459596 1.9941903-1.0821786 1.7691753-1.9470778l-.01125-.0428933c-.213061-.822709-.829741-1.1131182-3.4631126-1.1032738-3.1727032.0147665-5.3075274-.3079885-6.0704669-3.2409107l-.0112507-.0421902c-.6975447-2.679781.9928761-5.012196 4.0101787-5.7976369 2.1524034-.5597233 4.1641725-.3635389 5.9748355.450732l-1.050536 2.886513c-1.5441612-.5667551-2.974409-.7812219-4.21902-.4563574-1.2446109.3234582-1.7508934 1.0631931-1.5638501 1.7804265l.0105475.0428934c.2524381.9703747.9682652 1.1222594 3.6916427 1.112415 3.1987209 0 5.1668929.6370721 5.8370139 3.2106744l.011251.0421902c.76294 2.9336253-1.045614 5.1605648-4.230974 5.9910086-2.2374869.5815216-4.6978788.3881499-6.8819249-.7327032M110.170219 22.1115331l-4.615608.4872969-.324865-3.0770721 12.570571-1.3296945.324865 3.0777752-4.616312.488 1.276957 12.0938213-3.337245.3536946zM128.574921 27.304936l-1.821914-5.024853-2.228345 4.8596081 4.050259.1652449zm-3.159343-9.1165994l3.092542.1272738 5.902409 15.620219-3.506006-.1427435-1.253752-3.4764726-6.445256-.2650951-1.533614 3.3611527-3.419516-.1399308 7.163193-15.0844035zM144.255472 26.8459066c1.447124.3220519 2.466017.05766 2.712127-1.0491297l.009141-.041487c.218686-.980219-.424715-1.7023746-1.80785-2.0110663l-3.233879-.7186397-.701061 3.1480922 3.021522.6722305zm-.461983 6.1942248c1.446421.3213487 2.432265.0049222 2.677672-1.1011643l.010547-.0421902c.221499-1.0006109-.385337-1.782536-2.065913-2.1573256l-3.787274-.8423977-.728484 3.2767723 3.893452.8663055zm-4.410985-13.5964957l6.914271 1.5378329c1.701671.3783055 2.938547 1.1440576 3.60023 2.1847493.528784.8325533.684888 1.7382363.457764 2.7592392l-.009141.0428933c-.373384 1.6805764-1.475954 2.4174986-2.67275 2.7768185 1.577914 1.0428011 2.419608 2.2796772 1.973799 4.2794928l-.009142.0421902c-.606132 2.7240807-3.121371 3.5931988-6.482524 2.8457291l-7.085141-1.5765072 3.312634-14.8924381zM156.449003 23.7760772l3.119965 1.2382825-4.503804 11.3477579 7.071781 2.8070547-1.126478 2.8365879-10.191747-4.0453371zM170.543273 29.7869856l9.923135 5.8278732-1.511815 2.5750086-7.048577-4.1395619-1.566663 2.6699366 6.20196 3.6417176-1.511816 2.5757118-6.201959-3.6431239-1.622917 2.7641613 7.142098 4.1930029-1.511112 2.5757118-10.018767-5.8827204zM179.155769 43.9585337l.027424-.033049c2.781741-3.3295101 7.568922-3.9581441 11.164231-.9542017 2.208657 1.8451182 2.914639 3.6853141 3.107308 5.6640346l-3.218409.5203458c-.217983-1.5743977-.719343-2.8450259-1.890121-3.8231354-1.973095-1.6496369-4.76468-1.1974986-6.441741.8086455l-.028127.0337521c-1.67706 2.0075505-1.686201 4.8399194.320646 6.517683 1.338132 1.1173372 2.604542 1.2671124 4.223239 1.1996081l.255954 3.0250375c-2.28038.2819712-4.288634-.033049-6.547216-1.9196542-3.446237-2.8794813-3.782352-7.6772104-.973188-11.0390663M199.744096 64.2928046l.033752-.0281268c2.010363-1.6728415 2.458985-4.5417752.72989-6.6196426-1.729798-2.0771643-4.570605-2.1517003-6.581671-.4788588l-.033049.0288299c-2.011066 1.6735447-2.458986 4.5417753-.729187 6.6203459 1.729095 2.0771642 4.569902 2.1509971 6.580265.4774524m-8.130755-9.7677349l.033752-.0281268c3.334432-2.7747089 8.255919-2.4174985 11.267596 1.2017176 3.012381 3.618513 2.475862 8.461245-.857867 11.2352507l-.034455.02883c-3.33373 2.7747089-8.25381 2.4167954-11.266191-1.2010144-3.01238-3.6192161-2.476564-8.461245.857165-11.2366571M210.365127 66.2838305l1.767067 2.8541672-12.979113 8.0302017-1.767066-2.8541671zM215.000987 73.8374236l1.261487 2.8267435-5.662628 10.3562882 8.577268-3.8294639 1.350086 3.0250374-13.929798 6.2195389-1.163747-2.6073544 5.843343-10.7001384-8.855723 3.9546283-1.35079-3.0250375zM39.5559159 179.11379c1.5561152 2.262801 4.1325302 2.739551 6.3601729 1.208046l.0358616-.024611c2.2269395-1.530801 2.7395505-4.13253 1.182732-6.396034l-1.4696253-2.136934-7.5794698 5.211193 1.4703286 2.13834zm6.7047262-11.832242l3.3709971 4.902502c2.717049 3.953221 1.8823862 8.547031-1.6552623 10.98l-.0365648.024611c-3.5376484 2.432968-8.163804 1.59268-10.8801499-2.359136l-3.3717002-4.903205 12.5726801-8.644772zM55.8627101 180.607323l8.0266859 8.247482-2.1390433 2.082086-5.7020057-5.856703-2.2177983 2.159435 5.0178213 5.15494-2.1397464 2.082086-5.0185245-5.154236-2.2944438 2.234674 5.777245 5.935458-2.1404496 2.083493-8.1040346-8.325533zM60.6894801 196.298914l.0253141-.035862c2.5693833-3.494051 7.3094525-4.41872 11.0847724-1.643308 2.3176484 1.705187 3.1375446 3.498271 3.4518616 5.461522l-3.180438.718639c-.3157233-1.557521-.8937291-2.7951-2.1228703-3.697971-2.0722421-1.524472-4.8307781-.901464-6.3805649 1.205234l-.0260172.034455c-1.5490836 2.108104-1.3831355 4.93555.7242651 6.48604 1.4042305 1.03366 2.6783746 1.103977 4.2900403.93592l.4415908 3.003942c-2.257879.422605-4.2823055.232046-6.6533948-1.511815-3.6171066-2.65939-4.2499597-7.427586-1.6545591-10.956796M78.4348899 199.431537l10.2697983 5.194317-1.347977 2.664311-7.2946858-3.68883-1.3957925 2.760645 6.418536 3.24724-1.3465706 2.665014-6.4192392-3.247239-1.4471239 2.859792 7.3924265 3.737349-1.347977 2.665014-10.3668357-5.242835zM90.9642548 205.598056l2.9610489.902168 4.102294 11.072115 2.7388473-8.987919 3.169187.965452-4.446847 14.597107-2.7325187-.831147-4.2422248-11.433545-2.8267435 9.279735-3.1691873-.965453zM110.073393 213.567715l-4.607171-.580818.38815-3.070744 12.544554 1.582133-.38815 3.071447-4.606467-.581522-1.522363 12.068507-3.330917-.420496zM127.45013 218.751555c1.634167-.05555 2.54196-.957718 2.499067-2.243816l-.001407-.043596c-.049222-1.437983-1.076553-2.144669-2.71072-2.089821l-3.333026.11321.147666 4.37864 3.39842-.114617zm-7.00287-7.180069l6.971228-.234859c1.939343-.065395 3.460299.427527 4.497475 1.396496.877556.821302 1.376104 2.004738 1.423919 3.442017l.00211.043597c.082271 2.461798-1.194686 4.053072-3.108715 4.837809l3.908922 5.322294-3.921579.131493-3.432876-4.769602-2.635481.088599.163838 4.88-3.355527.113211-.513314-15.251055zM145.928243 217.703691l-3.020115-4.410986-.942951 5.262525 3.963066-.851539zm-5.33706-8.037937l3.02574-.649025 9.61796 13.649936-3.430767.736922-2.082086-3.053164-6.306732 1.353602-.646213 3.638202-3.34498.71864 3.167078-16.395113zM151.656618 206.984427l3.118559-1.238986 4.50732 11.342132 7.068265-2.808461 1.127885 2.835182-10.188231 4.048853zM163.965539 201.66607l2.95683-1.589164 7.224369 13.441095-2.95683 1.589868zM177.046963 209.063067l1.186951-12.821602-6.628784 4.707723-1.704484-2.398512 10.149556-7.208196 1.475954 2.079976-1.187655 12.821603 6.841845-4.859608 1.704484 2.399216-10.361914 7.358674zM182.01514 189.591305l8.187009-8.091378 2.098962 2.124277-5.814513 5.747009 2.176312 2.200219 5.116265-5.055793 2.098962 2.123574-5.116265 5.057199 2.25366 2.27827 5.891158-5.822247 2.098963 2.123573-8.263654 8.168023zM205.262293 181.942924c1.599008-2.232564 1.172887-4.816714-1.024519-6.389706l-.035158-.025314c-2.196-1.573694-4.816715-1.172184-6.415724 1.059678l-1.509706 2.1074 7.474698 5.356046 1.510409-2.108104zm-13.402421-2.283896l3.464519-4.836403c2.792991-3.896969 7.397348-4.672565 10.886478-2.172796l.035159.025315c3.489129 2.499769 4.271054 7.135066 1.478766 11.032034l-3.465222 4.8357-12.3997-8.88385z"/>
    </g>
</svg>
