<svg width="21" height="20" xmlns="http://www.w3.org/2000/svg">
    <title>Github</title>
    <path d="M10.24835 0C8.833858 0 7.506122.26688242 6.265104.80065237c-1.25436.53376996-2.345238 1.26435949-3.272665 2.19178652-.927428.92742703-1.658016 2.018305-2.191787 3.27266722C.266881 7.50612241 0 8.83385769 0 10.2483504c0 1.1342643.173473 2.2151322.520424 3.2426421.346951 1.0275099.830674 1.964929 1.451182 2.8122908.620509.8473618 1.364442 1.584622 2.231819 2.2118028.854033.6271809 1.788119 1.1142396 2.802283 1.4611906.253542.0400329.433687 6e-7.540439-.1200978.106755-.1200985.160131-.2468672.160131-.3803099v-.7205871c0-.3602954-.006672-.7539456-.020015-1.1809623-1.414493.3069184-2.341907.1834857-2.782268-.3703011-.440359-.5537875-.660537-.8306775-.660537-.8306775-.240196-.6004918-.490399-1.0008154-.750613-1.2009785-.260213-.2001631-.390316-.3002459-.390316-.3002459-.46705-.320261-.570467-.5037423-.310253-.5504466.260213-.0467069.390318-.0700577.390318-.0700577.507081.0266892.894059.2068347 1.160944.540439.266887.3336069.400326.500409.400326.500409.453707.7873116.990805 1.160946 1.611315 1.1209134.620507-.0400327 1.077542-.1267696 1.371116-.2602133.053376-.3336043.140113-.6138301.260214-.8406825.120098-.2268549.253539-.4069978.400326-.5404416-.573805-.053376-1.140928-.1668022-1.701388-.340276-.560459-.1734764-1.060863-.4436946-1.501222-.8106624-.440361-.3669678-.79398-.8640333-1.060865-1.4912144-.280231-.6271811-.420344-1.4344975-.420344-2.42197219 0-.56046178.093409-1.06753479.280231-1.52123951.18682-.45370728.447028-.86070002.780635-1.22099615-.053376-.13344377-.120098-.44369208-.200163-.93075774-.080066-.48706566.020015-1.08421398.300245-1.79146033 0 0 .223512.01000752.670545.03002511.447033.02001502 1.164277.36362684 2.151754 1.03084057.400329-.12010042.817331-.20683733 1.251018-.2602133.43369-.05337598.870708-.08006524 1.311069-.08006524.440362 0 .87738.02668926 1.311069.08006524.433687.05337597.85069.14011288 1.251019.2602133.974131-.66721373 1.688039-1.01082555 2.141746-1.03084057.453705-.02001759.680552-.03002511.680552-.03002511.280231.70724635.380311 1.30439467.300246 1.79146033-.080065.48706566-.146787.79731397-.200163.93075774.333607.36029613.593815.76728887.780635 1.22099615.186822.45370472.280231.96077773.280231 1.52123951 0 .98747469-.140113 1.79479109-.420344 2.42197219-.266885.6271811-.62384 1.1242466-1.070873 1.4912144-.447033.3669678-.95077.637186-1.511232.8106624-.547113.1601305-1.107565.2735541-1.68137.340276.186822.1601305.350286.3969878.490401.7105796.140116.3135893.210171.7105771.210171 1.1909711 0 .680557-.003336 1.2777038-.010008 1.7914582-.006671.5137547-.010007.8506926-.010007 1.0108238 0 .1334427.053376.2635474.16013.390318.106752.1267706.286898.1634668.54044.1100897 1.014163-.346951 1.954921-.8340097 2.8223-1.4611906.854031-.6271808 1.591293-1.364441 2.211802-2.2118028.620507-.8473618 1.104232-1.7847809 1.451182-2.8122908.34695-1.0275099.520424-2.1083778.520424-3.2426421 0-1.41449271-.266883-2.74222799-.800653-3.98324429-.53377-1.25436222-1.264359-2.34524019-2.191786-3.27266722S15.485957 1.33442233 14.231597.80065237C12.990578.26688242 11.662843 0 10.24835 0z" fill="#5981F0" fill-rule="evenodd"/>
</svg>
